{
"baseUrl":"https://the-internet.herokuapp.com/",
"defaultCommandTimeout": 10000,
"pageLoadTimeout":400000,
"viewportHeight":800,
"viewportWidth":1500,

"reporter": "mocha-junit-reporter",
"reporterOptions": {
    "mochaFile":"cypress/reports/junit/test-result.[hash].xml",
    "testsuitestTitle": false
}
}
